<?xml version="1.0" encoding="utf-8"?>
<!-- Generator: Adobe Illustrator 20.1.0, SVG Export Plug-In . SVG Version: 6.00 Build 0)  -->
<svg version="1.1" xmlns="http://www.w3.org/2000/svg" xmlns:xlink="http://www.w3.org/1999/xlink" x="0px" y="0px"
	 viewBox="0 0 100 14.1" style="enable-background:new 0 0 100 14.1;" xml:space="preserve">
<style type="text/css">
	.st0{fill:#1C2A39;}
	.st1{fill:#EF0E63;}
	.st2{fill:#FFBB00;}
</style>
<g id="Layer_1">
</g>
<g id="Layer_2">
	<g>
		<g>
			<path class="st0" d="M20.1,13.4c-1.2,0-2.3-0.2-3.3-0.5c-1-0.3-1.9-0.8-2.6-1.5L16.2,9c0.6,0.5,1.3,0.8,2,1
				c0.7,0.2,1.4,0.3,2.1,0.3c0.4,0,0.6,0,0.8-0.1c0.2-0.1,0.2-0.2,0.2-0.4v0c0-0.2-0.1-0.3-0.3-0.4c-0.2-0.1-0.6-0.2-1.3-0.3
				C19,9,18.4,8.8,17.8,8.6c-0.6-0.2-1.1-0.4-1.6-0.7c-0.4-0.3-0.8-0.6-1.1-1c-0.3-0.4-0.4-0.9-0.4-1.5v0c0-0.6,0.1-1.1,0.3-1.5
				c0.2-0.5,0.5-0.9,0.9-1.2c0.4-0.4,0.9-0.6,1.5-0.8c0.6-0.2,1.3-0.3,2.1-0.3c1.1,0,2.1,0.1,3,0.4c0.8,0.3,1.6,0.7,2.3,1.2L23,5.6
				c-0.6-0.4-1.1-0.7-1.7-0.9c-0.6-0.2-1.2-0.3-1.7-0.3c-0.3,0-0.5,0-0.6,0.1c-0.1,0.1-0.2,0.2-0.2,0.3v0c0,0.1,0,0.1,0.1,0.2
				c0,0.1,0.1,0.1,0.2,0.2c0.1,0.1,0.3,0.1,0.5,0.2c0.2,0.1,0.5,0.1,0.8,0.2c0.7,0.1,1.4,0.3,2,0.5c0.6,0.2,1.1,0.4,1.6,0.7
				c0.4,0.3,0.8,0.6,1,1.1c0.2,0.4,0.4,0.9,0.4,1.5v0c0,0.6-0.1,1.2-0.4,1.6c-0.2,0.5-0.6,0.9-1,1.2c-0.4,0.3-1,0.6-1.6,0.8
				C21.5,13.4,20.8,13.4,20.1,13.4z"/>
			<path class="st0" d="M25.7,1.6h3.9v4.1h3.5V1.6H37v11.6h-3.9V9.1h-3.5v4.2h-3.9V1.6z"/>
			<path class="st0" d="M56.7,13.5c-0.9,0-1.6-0.1-2.3-0.3c-0.7-0.2-1.3-0.5-1.8-1c-0.5-0.4-0.9-1-1.2-1.7C51.2,9.8,51,9,51,8V1.6
				H55V8c0,0.7,0.2,1.2,0.5,1.6c0.3,0.3,0.8,0.5,1.3,0.5c0.5,0,1-0.2,1.3-0.5c0.3-0.3,0.5-0.8,0.5-1.5V1.6h3.9V8
				c0,1-0.1,1.8-0.4,2.5c-0.3,0.7-0.7,1.3-1.2,1.7c-0.5,0.4-1.1,0.8-1.8,1C58.4,13.4,57.6,13.5,56.7,13.5z"/>
			<path class="st0" d="M69,13.5c-0.9,0-1.6-0.1-2.3-0.3c-0.7-0.2-1.3-0.5-1.8-1c-0.5-0.4-0.9-1-1.2-1.7C63.4,9.8,63.3,9,63.3,8V1.6
				h3.9V8c0,0.7,0.2,1.2,0.5,1.6C68.1,9.9,68.5,10,69,10c0.5,0,1-0.2,1.3-0.5c0.3-0.3,0.5-0.8,0.5-1.5V1.6h3.9V8
				c0,1-0.1,1.8-0.4,2.5c-0.3,0.7-0.7,1.3-1.2,1.7c-0.5,0.4-1.1,0.8-1.8,1C70.6,13.4,69.8,13.5,69,13.5z"/>
			<path class="st0" d="M78.6,4.9h-3.4V1.6h10.7v3.3h-3.4v8.3h-3.9V4.9z"/>
		</g>
		<g>
			<line x1="38" y1="13.2" x2="38" y2="13.2"/>
			<path class="st1" d="M43.4,13.2c3.9,0,5.4-1.8,5.4-1.8l0,0c0.6-0.6,1-1.3,1.3-2c0.3-0.7,0.4-1.5,0.4-2.3c0-0.8-0.2-1.6-0.5-2.3
				c-0.3-0.8-0.8-1.5-1.4-2.1c0,0,0,0,0,0c0,0,0,0,0,0c-0.6-0.6-1.3-1.1-2.1-1.4s-1.5-0.5-2.3-0.5c-0.8,0-1.6,0.1-2.3,0.4
				c-0.7,0.3-1.4,0.7-2,1.3l0,0c0,0-2,2-2,5.6l0,0l0,5.3H43.4z"/>
			<path class="st2" d="M42.4,8.7C42.7,9,43,9.2,43.3,9.3c0.3,0.1,0.6,0.2,0.9,0.1c0.3,0,0.6-0.1,0.9-0.2c0.3-0.1,0.6-0.3,0.8-0.6
				l0,0c0.2-0.2,0.4-0.5,0.6-0.8c0.1-0.3,0.2-0.6,0.2-0.9c0-0.3,0-0.6-0.1-0.9c-0.1-0.3-0.3-0.6-0.6-0.9c-0.3-0.3-0.5-0.4-0.9-0.6
				c-0.3-0.1-0.6-0.2-0.9-0.1c-0.3,0-0.6,0.1-0.9,0.2c-0.3,0.1-0.6,0.3-0.8,0.6l0,0C42.3,5.4,42.1,5.7,42,6
				c-0.1,0.3-0.2,0.6-0.2,0.9c0,0.3,0,0.6,0.1,0.9C42,8.2,42.1,8.5,42.4,8.7z"/>
		</g>
	</g>
</g>
<g id="Layer_3">
</g>
</svg>
